\relax 
\providecommand\HyperFirstAtBeginDocument{\AtBeginDocument}
\HyperFirstAtBeginDocument{\ifx\hyper@anchor\@undefined
\global\let\oldcontentsline\contentsline
\gdef\contentsline#1#2#3#4{\oldcontentsline{#1}{#2}{#3}}
\global\let\oldnewlabel\newlabel
\gdef\newlabel#1#2{\newlabelxx{#1}#2}
\gdef\newlabelxx#1#2#3#4#5#6{\oldnewlabel{#1}{{#2}{#3}}}
\AtEndDocument{\ifx\hyper@anchor\@undefined
\let\contentsline\oldcontentsline
\let\newlabel\oldnewlabel
\fi}
\fi}
\global\let\hyper@last\relax 
\gdef\HyperFirstAtBeginDocument#1{#1}
\providecommand\HyField@AuxAddToFields[1]{}
\select@language{english}
\@writefile{toc}{\select@language{english}}
\@writefile{lof}{\select@language{english}}
\@writefile{lot}{\select@language{english}}
\@writefile{toc}{\contentsline {section}{\numberline {1}Introduction}{1}{section.1}}
\citation{Ghosh2011}
\citation{Roth2012}
\citation{Fleischer2012}
\@writefile{toc}{\contentsline {section}{\numberline {2}Background}{2}{section.2}}
\citation{Ghosh2013}
\@writefile{toc}{\contentsline {section}{\numberline {3}Objectives}{3}{section.3}}
\@writefile{toc}{\contentsline {section}{\numberline {4}Approach}{3}{section.4}}
\@writefile{toc}{\contentsline {subsection}{\numberline {4.1}Simulated Data}{3}{subsection.4.1}}
\@writefile{toc}{\contentsline {subsection}{\numberline {4.2}Learning Algorithm}{4}{subsection.4.2}}
\@writefile{toc}{\contentsline {subsection}{\numberline {4.3}Bid Offering Strategy}{4}{subsection.4.3}}
\@writefile{toc}{\contentsline {subsubsection}{\numberline {4.3.1}Single Offer, Maximum Privacy Valuation}{4}{subsubsection.4.3.1}}
\@writefile{toc}{\contentsline {subsubsection}{\numberline {4.3.2}Single Offer, Randomly Selected}{5}{subsubsection.4.3.2}}
\@writefile{toc}{\contentsline {subsubsection}{\numberline {4.3.3}Single Offer, Based on Learned Distributions}{5}{subsubsection.4.3.3}}
\@writefile{toc}{\contentsline {paragraph}{Uniform Type Sample}{5}{section*.1}}
\@writefile{toc}{\contentsline {paragraph}{Most Prevalent Type Sample}{5}{section*.2}}
\@writefile{toc}{\contentsline {paragraph}{Least Prevalent Type Sample}{5}{section*.3}}
\@writefile{toc}{\contentsline {subsection}{\numberline {4.4}Multiple Offers}{5}{subsection.4.4}}
\@writefile{toc}{\contentsline {subsection}{\numberline {4.5}Truthfulness Bound}{6}{subsection.4.5}}
\newlabel{section:truth_bound}{{4.5}{6}{Truthfulness Bound\relax }{subsection.4.5}{}}
\citation{Ghosh2011}
\@writefile{toc}{\contentsline {subsection}{\numberline {4.6}Quantifying Estimator Quality}{7}{subsection.4.6}}
\@writefile{toc}{\contentsline {section}{\numberline {5}Results and Discussion}{7}{section.5}}
\@writefile{toc}{\contentsline {subsection}{\numberline {5.1}Estimation Quality Comparison}{7}{subsection.5.1}}
\@writefile{lof}{\contentsline {figure}{\numberline {1}{\ignorespaces  Change in J-S divergence for increasing number of sampled individuals for different offer strategies. Note that most of these strategies give a similar quality estimate. Strategies that share the initial period have identical behavior for the first approximately 200 individuals sampled.}}{8}{figure.1}}
\newlabel{fig:strategy_log_divergences}{{1}{8}{Change in J-S divergence for increasing number of sampled individuals for different offer strategies. Note that most of these strategies give a similar quality estimate. Strategies that share the initial period have identical behavior for the first approximately 200 individuals sampled}{figure.1}{}}
\@writefile{toc}{\contentsline {subsection}{\numberline {5.2}Comparison with Other Mechanisms}{8}{subsection.5.2}}
\@writefile{lof}{\contentsline {figure}{\numberline {2}{\ignorespaces  Amount of money spent to sample an increasing number of individuals for different offer strategies. The limiting case of offering all individuals the maximum privacy valuation is shown in purple.}}{9}{figure.2}}
\newlabel{fig:strategy_costs}{{2}{9}{Amount of money spent to sample an increasing number of individuals for different offer strategies. The limiting case of offering all individuals the maximum privacy valuation is shown in purple}{figure.2}{}}
\@writefile{lof}{\contentsline {figure}{\numberline {3}{\ignorespaces  Comparison of learned (blue) and true underlying distributions (green) of a sample dataset with two private types. The learning mechanism indeed approaches the true distribution, albeit with higher variance.}}{9}{figure.3}}
\newlabel{fig:uniform_offer_learned}{{3}{9}{Comparison of learned (blue) and true underlying distributions (green) of a sample dataset with two private types. The learning mechanism indeed approaches the true distribution, albeit with higher variance}{figure.3}{}}
\bibstyle{is-unsrt}
\bibdata{CSEc101}
\bibcite{Ghosh2011}{1}
\bibcite{Roth2012}{2}
\@writefile{toc}{\contentsline {section}{\numberline {6}Conclusion}{10}{section.6}}
\bibcite{Fleischer2012}{3}
\bibcite{Ghosh2013}{4}
