\BOOKMARK [1][-]{section.1}{Introduction}{}% 1
\BOOKMARK [1][-]{section.2}{Background}{}% 2
\BOOKMARK [1][-]{section.3}{Objectives}{}% 3
\BOOKMARK [1][-]{section.4}{Approach}{}% 4
\BOOKMARK [2][-]{subsection.4.1}{Simulated Data}{section.4}% 5
\BOOKMARK [2][-]{subsection.4.2}{Learning Algorithm}{section.4}% 6
\BOOKMARK [2][-]{subsection.4.3}{Bid Offering Strategy}{section.4}% 7
\BOOKMARK [3][-]{subsubsection.4.3.1}{Single Offer, Maximum Privacy Valuation}{subsection.4.3}% 8
\BOOKMARK [3][-]{subsubsection.4.3.2}{Single Offer, Randomly Selected}{subsection.4.3}% 9
\BOOKMARK [3][-]{subsubsection.4.3.3}{Single Offer, Based on Learned Distributions}{subsection.4.3}% 10
\BOOKMARK [2][-]{subsection.4.4}{Multiple Offers}{section.4}% 11
\BOOKMARK [2][-]{subsection.4.5}{Truthfulness Bound}{section.4}% 12
\BOOKMARK [2][-]{subsection.4.6}{Quantifying Estimator Quality}{section.4}% 13
\BOOKMARK [1][-]{section.5}{Results and Discussion}{}% 14
\BOOKMARK [2][-]{subsection.5.1}{Estimation Quality Comparison}{section.5}% 15
\BOOKMARK [2][-]{subsection.5.2}{Comparison with Other Mechanisms}{section.5}% 16
\BOOKMARK [1][-]{section.6}{Conclusion}{}% 17
